<svg width="11" height="11" viewBox="0 0 11 11" fill="none" xmlns="http://www.w3.org/2000/svg">
<path d="M10.1096 5.44096C10.1096 2.85171 8.02335 0.752686 5.44983 0.752686C2.87632 0.752686 0.790039 2.85168 0.790039 5.44096C0.790039 7.78099 2.49407 9.72058 4.72174 10.0723V6.79616H3.53859V5.44096H4.72174V4.40807C4.72174 3.23307 5.41743 2.58404 6.48179 2.58404C6.99164 2.58404 7.52489 2.67561 7.52489 2.67561V3.82936H6.93732C6.35842 3.82936 6.17792 4.19076 6.17792 4.56154V5.44096H7.47029L7.26369 6.79616H6.17792V10.0723C8.4056 9.72058 10.1096 7.78102 10.1096 5.44096Z" fill="#1877F2"/>
</svg>
